"V1" "V2" "V3" "V4" "V5" "V6" "V7" "V8" "V9" "V10" "V11" "V12" "V13" "V14" "V15" "V16" "V17" "V18" "V19" "V20" "V21" "V22" "V23" "V24" "V25" "V26" "V27" "V28" "V29" "V30" "V31" "V32" "V33" "V34" "V35" "V36" "V37" "V38" "V39" "V40" "V41" "V42" "V43" "V44" "V45" "V46" "V47" "V48" "V49" "V50" "V51" "V52" "V53" "V54" "V55" "V56" "V57" "V58" "V59" "V60" "V61" "V62" "V63" "V64" "V65" "V66" "V67" "V68" "V69" "V70" "V71" "V72" "V73" "V74" "V75" "V76" "V77" "V78" "V79" "V80" "V81" "V82" "V83" "V84" "V85" "V86" "V87" "V88" "V89" "V90" "V91" "V92" "V93" "V94" "V95" "V96" "V97" "V98" "V99" "V100" "V101" "V102" "V103" "V104" "V105" "V106" "V107" "V108" "V109" "V110" "V111" "V112" "V113" "V114" "V115" "V116" "V117" "V118" "V119" "V120" "V121" "V122" "V123" "V124" "V125" "V126" "V127" "V128" "V129" "V130" "V131" "V132" "V133" "V134" "V135" "V136" "V137" "V138" "V139" "V140" "V141" "V142" "V143" "V144" "V145" "V146" "V147" "V148" "V149" "V150" "V151" "V152" "V153" "V154" "V155" "V156" "V157" "V158" "V159" "V160" "V161" "V162" "V163" "V164" "V165" "V166" "V167" "V168" "V169" "V170" "V171" "V172" "V173" "V174" "V175" "V176" "V177" "V178" "V179" "V180" "V181" "V182" "V183" "V184" "V185" "V186" "V187" "V188" "V189" "V190" "V191" "V192" "V193" "V194" "V195" "V196" "V197" "V198" "V199" "V200" "V201" "V202" "V203" "V204" "V205" "V206" "V207" "V208" "V209" "V210" "V211" "V212" "V213" "V214" "V215" "V216" "V217" "V218" "V219" "V220" "V221" "V222" "V223" "V224" "V225" "V226" "V227" "V228" "V229" "V230" "V231" "V232" "V233" "V234" "V235" "V236" "V237" "V238" "V239" "V240" "V241" "V242" "V243" "V244" "V245" "V246" "V247" "V248" "V249" "V250" "V251" "V252" "V253" "V254" "V255" "V256" "V257" "V258" "V259" "V260" "V261" "V262" "V263" "V264"
"1" NA NA NA NA NA NA NA NA NA NA NA NA NA NA NA NA NA NA NA NA NA NA NA NA NA NA NA NA NA NA NA NA NA NA NA NA NA NA NA NA NA NA NA NA NA NA NA NA NA NA NA NA NA NA NA NA NA NA NA NA NA NA NA NA NA NA NA NA NA NA NA NA NA NA NA NA NA NA NA NA NA NA NA NA NA NA NA NA NA NA NA NA NA NA NA NA NA NA NA NA NA NA NA NA NA NA NA NA NA NA NA NA NA NA NA NA NA NA NA NA NA NA NA NA NA NA NA NA NA NA NA NA NA NA NA NA NA NA NA NA NA NA NA NA NA NA NA NA NA NA NA NA NA NA NA NA NA NA NA NA NA NA NA NA NA NA NA NA NA NA NA NA NA NA NA NA NA NA NA NA NA NA NA NA NA NA NA NA NA NA NA NA NA NA NA 0.932787501337869 NA NA NA NA NA NA NA NA NA NA NA NA NA NA NA NA NA NA NA NA NA NA NA NA NA NA 0.847988637579881 NA NA NA NA NA NA NA NA NA NA NA NA NA NA NA NA NA NA NA NA NA NA NA NA NA NA 1.27198295636982 NA 1.2075986338869 0.998742173149637 NA NA NA NA NA NA NA NA NA NA NA
"2" NA NA NA NA NA NA NA NA NA NA NA NA NA NA NA NA NA NA NA NA NA NA NA NA NA NA NA NA NA NA NA NA NA NA NA NA NA NA NA NA NA 0.816478542162371 0.86486622869102 NA NA NA NA NA 0.909179162669889 NA NA NA NA NA NA NA NA NA NA 0.984052740772115 NA NA NA NA NA NA NA 1.17658479874927 NA 1.04823009343117 NA NA 0.812913133681313 NA NA NA NA NA NA NA NA NA NA NA NA NA NA NA NA NA NA NA NA NA NA NA NA NA NA NA NA NA NA NA NA NA NA NA NA NA NA NA NA NA NA NA NA NA NA NA 0.977367599870131 NA NA NA NA NA NA NA NA NA NA NA NA NA NA NA NA NA 0.852132626972955 NA NA NA NA NA NA NA NA NA NA NA NA NA NA NA NA NA NA NA NA NA NA NA NA NA NA NA NA NA NA 0.759432006465437 NA NA NA NA NA NA NA NA NA NA NA 0.97335651532894 NA NA NA NA NA NA NA NA NA NA NA NA 1.04823009343117 NA NA NA NA NA NA NA NA NA NA 0.994748966215291 NA NA NA NA NA NA NA 1.01732988659533 NA NA NA NA NA NA NA NA 0.823609359124488 NA NA NA NA NA NA NA NA NA NA NA NA NA NA 0.987618149253174 0.887786711783539 NA NA NA NA 0.866394260897188 NA NA NA NA NA 0.984052740772115 NA 1.13002475858486 0.97335651532894 NA NA NA NA NA NA 0.738039555579087 NA NA NA NA
"3" 1.07820672715446 0.99399176385009 1.05056040081717 NA NA 1.10170610454116 NA 1.06161893135209 NA NA 1.09479452295684 1.12797011456159 1.07820672715446 NA NA NA NA NA NA NA NA NA 0.912328769130699 1.06783935477798 0.95379825863664 1.06438356398582 0.962813365050974 NA 0.901961396754213 0.978341425895258 1.04315118535877 1.09715074395149 1.17480624388595 1.14041096141337 NA NA 1.08484184547541 1.00356164604377 0.940666253626425 1.15285180826516 0.95103362600291 0.86036993816149 1.0138020710034 1.06078022257556 1.06499792679331 1.13626401246278 1.09064757400624 1.06697321987057 0.994146951128906 NA 0.95379825863664 0.941357411784857 0.982826901290798 NA NA NA NA 0.978679952340204 NA 0.984209217607663 1.02688823389086 1.05539850792619 1.06438356398582 1.01673430741624 1.06991282925327 1.06991282925327 NA 1.21643835884093 0.957115817797115 1.06080977058124 1.1641616690395 NA 1.03593460236776 1.17109838364777 NA 1.0362188690297 1.12151930508289 1.08650062505565 1.08373599242192 1.07820672715446 NA 1.01185554394496 1.15423412458202 1.00356164604377 1.05670402889212 1.06161893135209 0.962684577816484 1.01807596737085 1.14455791036397 0.909564136496969 1.02291407447987 1.06714819661954 NA NA 1.04818281675216 1.00419963819001 0.977048365867839 0.951724784161343 0.950222667097016 0.949219002266486 1.00060174196007 0.961381975677787 0.963261583594395 0.95766642110316 1.11623513136097 1.02207013399168 1.07161526092773 0.968230947110361 0.931856174315775 0.963826827994285 0.951542461405756 0.93394945297766 0.946842086203385 0.945691793456382 0.965676963519564 0.9312862500477 1.00155505784187 0.984235299047604 1.0603429470596 1.00999691140324 0.990068588264224 0.986068678643039 1.02681556539289 1.03781905041824 1.04503113554971 1.10384241157632 0.972388029794475 NA NA 1.0411103838146 1.13369004414862 1.0587914661585 1.06161893135209 0.738156913205747 0.908181820180105 0.919159037990501 0.916752181344666 0.968571764273131 0.789105143170189 NA 0.986973850241392 NA NA 1.09491649204362 1.05587700203588 0.929617962471632 0.926728053308269 0.919728529339937 0.91631823900722 0.988700335110619 1.0016820936417 0.937936935643127 1.2011515666309 NA NA NA 1.04337235596947 1.16114570616634 1.21229140989034 1.123823165611 NA NA 1.00909091131123 NA NA NA NA 0.98328767339642 1.08052130331293 1.07052155570474 1.03290928477105 1.07971470859104 1.08345952915855 1.07075914536564 1.01478875173928 1.02991483776206 1.09479452295684 1.06714819661954 NA NA 1.17358655301813 1.07756873500822 1.13586906494368 1.20607098646445 1.02429639079674 1.07405977820387 1.1943212977711 1.12520548192786 1.18602739986991 1.13806703374565 1.13626401246278 NA 1.12905192733131 1.15181507102751 1.11397416185334 1.09137938852694 0.973150687072745 NA 1.03120797238106 1.03673723764852 1.15699875721575 1.13211706351219 1.12797011456159 1.06483493257908 1.05664259261137 1.05687956112284 1.11380137231373 1.17496886933499 1.05885429871836 1.07820672715446 1.10308842085803 1.14124035120349 1.10321601928728 1.03926146744454 1.04834869471018 1.16114570616634 1.15561644089889 1.11081032580051 1.11345579323451 1.08650062505565 1.03120797238106 NA 1.0170392301332 1.03904109817663 1.10585305349176 1.14171428822642 1.19708593040483 1.29384807258535 NA 1.04967063399252 1.06971053906056 1.04740082066433 NA 1.02014944184614 1.04814134726266 1.03010211932757 1.08343301898261 1.0341453945544 1.03115580950118 1.09657178679281 0.992251785269421 0.948437568529774 1.04731910738452 1.00669987768206 0.979810938417639 1.06680261754033 1.07629275071573 1.14894879748813 1.06255465316658 1.0531602540224 1.1580020513167 1.18613441790734 1.10001027318336 1.07205780284841 1.05056040081717 1.10819235802799 1.05996015177185 0.971077212597448 1.00990403855644 0.980109934736961 1.03570050041087 1.08373599242192 1.08235367610506 NA
"4" 0.928264146795526 0.821529397256579 0.908222079989714 NA 0.984522579934649 0.995461719711701 0.987804321867764 0.910355212246239 NA 1.05015741859696 0.993898985457836 1.01405825733269 1.00421303153334 NA 0.897009461718236 1.0173399992658 NA NA NA NA NA NA 0.875131182164132 0.977959096068418 0.858301736353284 0.946079317289582 0.886070321941184 0.8824239420155 0.890758524702778 0.921028007750458 0.937862176449261 0.968924176919223 1.07817844587202 0.99327389175629 NA NA 1.02190590108579 0.948423418670378 0.964102852350819 1.04031219279761 0.886070321941184 0.859160038089637 0.97744705122779 0.962872415143669 1.00067884791306 1.03495777174884 1.0540955089167 0.975060934361251 0.96802010621384 0.967019956291366 0.930373838038243 0.964394562744874 0.951705160603494 1.09282006372746 1.07859918201729 0.879506838074953 NA 1.06984787019565 NA 1.00209577867327 0.990898535690416 0.965269693927038 1.00678135130708 0.967879460130992 0.928732967071686 0.99108606380088 0.985835276707895 1.02357530893872 0.966472999302514 1.04720385085715 1.03461232522957 NA 0.967158426415126 1.00219349803604 0.96423544798448 1.01816043474908 0.955075598264532 1.00421303153334 1.03177966377151 0.998659314415762 1.00434698018367 1.03156088097597 1.09756035763085 1.24706193458389 0.970543755785506 0.96570725951812 0.893991767986635 0.913965128372666 0.923700962774242 0.93595279932454 0.933186759695199 0.993137152509077 0.966599220146095 0.92545122513857 0.993711457347372 0.979990650598442 0.951158203614641 0.85762855852085 0.911201094391566 0.921004004761918 0.938492208366234 0.945974118593468 0.920196831735769 0.935927555155823 1.04862513467966 1.00775287240919 1.02643675760672 0.936884390582972 0.946820707493741 0.94754438065258 0.941802360384268 0.917277830135339 0.916994428618619 0.924447398194323 0.922780566186104 0.935190588294913 0.978090365745742 0.95838798054002 1.04394681020741 0.984483277636049 0.979802771311741 0.939677495587544 0.972644154621853 0.941409499636857 0.928039641311168 0.936859185191781 0.9624012083855 NA 1.11360442930386 0.99793491653086 1.06757589501119 0.995552879209843 0.998708174097148 1.06328438632942 0.888258149896594 0.955881923063823 0.921313376614207 0.931257383943313 0.96155038640284 NA 0.911314490657457 NA NA 0.989805384022103 1.02806035624731 0.98058448961491 0.951180081894195 0.89965788503268 0.885840600005866 0.902550733531351 0.910109712705473 0.940065601085322 1.03383461840607 1.00749477346646 0.99108606380088 NA NA 1.03009191077734 1.03046696699827 0.981109568324209 0.92545122513857 0.923628035175728 0.924513584586251 0.964832128335956 NA 0.945141676737263 NA 0.967019956291366 0.9711060467375 0.993751236037471 0.980706600942654 0.95445947972593 0.955720468380482 0.953580441708131 0.933559058149796 0.948423418670378 0.992661299928775 1.03817192631949 1.04031219279761 1.03374870893138 NA 1.04400415247237 1.00693447606324 0.990076297052229 0.925870170917266 0.98740130092861 1.03429566592023 0.971395612202187 1.03213388353572 1.1108696443596 1.11798008521468 NA 1.00357785567532 1.0259918643622 1.02408924210938 1.03030688202592 1.0311962429834 0.959909515436283 0.919617017257476 0.987631598608127 1.00213192689283 1.02410543648176 0.971395612202187 0.973270893306824 1.06000264439631 0.963048207080006 1.00261218180987 1.01225859240162 1.00013914499568 NA 0.970202251499236 0.991648648132271 0.968389113140881 1.01689501730877 0.968113870269071 1.03538957989794 1.03557189889422 0.99791208702176 0.981240838001533 0.940650871986684 0.946151443485914 0.939234541257655 0.938125538811292 0.904364287610892 0.96474461521774 1.00377546594226 1.05754133794647 1.04605524118056 0.918887741272339 0.948153903632393 0.961357342759716 0.974208533859143 0.982334751979239 0.969520331097549 0.903497503241177 0.98058448961491 0.96674647779694 0.940529498885317 0.938184383839058 0.956549636790474 0.923974441268668 0.892804285907837 0.947400079788009 0.912719648000459 0.909164061470515 0.91329662538629 0.939707722652662 0.991279107444004 0.932743984989938 0.987818168880141 1.03104047529726 1.08170448621207 1.01316323680548 0.978130317386668 0.950975884618357 0.975195523914215 0.96455864984153 0.895423286450563 0.894296555053527 0.913751101724854 0.963327996616611 0.986066929079644 0.96934452349399 NA
"5" 0.906286502720995 0.861796085094246 0.907698873602976 0.980933883575518 1.03688778008375 1.0271619107038 1.01350052262556 0.965637656245078 1.03870591067321 1.0669573916663 1.05812120469231 1.0570001439336 1.08185707039533 1.04383945586697 0.968851551683331 1.03634459945423 1.10427947469603 1.06697184340467 1.04695119890324 1.06999101667033 1.07693479577094 1.08464476308263 0.880246230975811 NA 0.861455117305881 1.06854085979083 0.873395827488018 0.906893233249368 0.919807317032626 0.899792569050424 0.933616783838771 0.914005060359136 1.09965764974234 1.09751848278438 NA NA 1.00946006670526 0.977060133048022 0.976589104946498 0.992075790523443 0.981967041610942 1.04754532613236 0.96956071823371 0.984048909861765 1.00671626425398 1.11166288084572 1.13681566616585 1.02736638989831 1.07432073452747 1.02513095284692 0.99662809867559 1.01231442100278 1.00656904091246 1.06597875110418 1.09678198758605 1.09038720679901 1.10286031146878 1.12786020212643 1.21555016552364 1.04679835975752 1.01348221007975 0.98943621427875 1.05317307444694 1.0530218741611 1.12037574079886 1.1031117752127 1.09143789055853 1.02907164875121 1.03910320967836 1.08311728341234 1.09371699103866 NA 1.03848568056521 1.09636746849631 1.11492653340048 1.10859317798614 1.00819544592975 1.03875836725603 1.10920563884739 1.03163685922983 1.01571058058998 1.11641356848288 1.12979636561109 1.13076684411938 0.985617788059487 0.972644977408043 0.953220635266236 1.0045306957206 1.00358426797299 0.983921214028711 0.987895458411361 1.00483563892231 1.00924211196937 1.02714391982445 1.02824150365384 0.988694840514694 0.940730128100901 0.832147386042267 0.887957841503039 0.892122878899068 0.924049989217514 0.923849875489395 0.875878130356363 0.89002200078304 0.977111543609585 0.975196533656321 1.10474174365499 1.10182157080204 1.05265718261713 1.05883641204079 0.977990052161993 1.07144101891591 1.00338268716433 0.979299388672095 0.954710139751172 0.989163384696144 1.06202469287242 1.07445589150288 1.09762254749616 1.04363602326132 1.01584422770756 0.970314642999042 1.03593803789093 1.06724919391222 1.01295474681535 1.01885502831747 1.00645439705069 1.10985015113028 1.13539432127534 1.06671772590202 1.01453138815055 1.03820779400619 1.0617859771072 1.10653407224735 1.09313385280136 1.04699911329246 0.987889246522642 1.01208257706943 1.04258436072057 1.0998976905359 0.99883641318725 1.0934918155694 1.15970864848563 0.975263625954073 1.05339313094242 1.03431943998517 1.01038371107106 1.01869824761366 1.01136654052094 0.93067838883939 0.921869845883706 0.982233095914596 0.974315549340954 1.01845185262526 1.13608324655012 1.1167245097306 1.15625380394596 1.06096389447335 1.13228368565362 1.117848223436 1.07120866509917 1.03584933328249 1.0265540458993 1.00628332836818 1.06203535606204 1.0808819182053 1.07787589677628 1.07210014598979 0.992581666106242 0.971552079019292 1.02447482270016 1.00901580771412 1.02762134453888 1.02696073068503 1.01498360563562 0.970346151073161 1.03177314451043 1.06263933521354 1.11790187231216 1.13889628716101 1.12640054812082 1.06694838058238 1.00937989354662 1.04750759055764 1.01594564558951 1.01476417984892 1.04925136268519 1.02968708693564 1.02765590995827 1.06945543802732 1.12621386993609 1.15370487138777 1.05180868304967 1.014905576798 1.01586352775503 1.03778283784325 1.07752798456675 1.03305748915813 0.973198518172403 0.954335080448561 1.00424593735419 1.03273974169384 1.08296155097758 1.0718322427275 1.02902831085633 0.929054767033922 1.00377385836853 1.03132519502255 1.0392629584197 1.08313555845141 1.06255247932002 0.98457874137778 0.950692916691594 1.02865332189174 1.0600557118015 1.09449583324998 1.08877945973645 1.02328891549371 1.01808227371033 1.01177968491078 1.03091464787613 0.99461311271097 0.986564647616605 0.924454728157378 0.977081892919406 0.988013556670717 1.01818664402464 1.04885604446394 0.973946357624014 0.969099613096099 0.963502139201806 0.975056365379539 0.988498403836361 0.970233077942298 0.926241316604124 0.977877878824116 0.946534964956929 0.960447246170431 0.922221284378801 0.980973475044324 0.942320598536913 0.944588178626258 0.9753907269911 0.936092845053803 0.93433082000058 0.976110271807567 0.92493302109845 0.929631626589598 0.949615898541661 0.967843670525394 0.981251669982428 1.04525395539048 1.0652077256964 1.00451461954517 1.00976988798201 1.05964264429343 1.00601801640915 0.920344196665625 0.910781790689449 0.920248097199376 0.977659886216111 0.992121759030615 1.0202968434811 1.10173266636477
"6" 0.960508089257638 1.00216198969123 0.923976075840322 0.951066538492689 0.998346286713242 0.973158533093026 0.99671921336791 0.932635973165035 0.938545123574469 0.999875108883114 0.99293892384948 1.04129306129682 1.01641688006184 0.965876814202412 0.954177547557002 1.00008587223063 0.978498926011416 0.954681988151239 0.934559252024561 0.970724436853696 0.9791113702048 0.97207972703863 0.96224829665353 NA 0.907129387220512 1.04810750410889 0.894391917192385 0.902940622373318 0.92379094739395 0.936208099284724 0.952304188479958 0.928110611142619 1.02799090695132 1.02788362383103 0.99730236797398 NA 1.04462336526326 0.996603820951686 0.983355648736661 0.938811379234745 0.940885699958456 0.971384385481965 0.973283547992156 0.973136880643158 0.999402204518472 1.05066003268765 1.04348825730737 1.03931109792979 1.00077515027719 0.949078121846477 0.962340717366292 0.955523120154821 0.960275581967171 0.997923067321043 1.01146816064891 1.00828567486095 1.00399784678442 1.01595460025716 1.08327567563846 1.01162205330082 1.00105909681923 0.998187899042457 0.987583124539474 1.03533940709421 1.06163769056134 1.04852057124755 1.0325266848657 0.995584056690578 1.00079993355426 1.0418103319558 1.04080161926724 NA 1.05963430737406 1.06461031777672 1.05082257271432 1.07825081538706 1.06068816560308 1.02948750306764 1.02379094434769 0.998968056495247 1.00686525292337 1.03600659861944 1.04409367891507 1.04141054740763 1.00081209476977 0.990092340981716 0.957565684621174 0.983887667520445 0.963770846105873 0.96914783726252 0.952650681261358 0.949021853886063 0.973700332524935 0.998391756857964 1.01587832458149 1.00553672699488 0.993522662193894 0.907129387220512 0.94978606673862 0.921573262880125 0.965294161882824 0.927095832992138 0.933818738239075 0.957787262091268 1.01944064468591 1.0427873987561 1.05888599523297 1.0503587859007 1.0772080882502 1.07653270402147 1.04726998281893 1.0512432217408 1.04612999570447 1.02034362524354 0.965643689492166 0.959999314272042 1.02989619444121 1.04553899857642 1.04587053538191 1.05794285307587 1.10041204082431 1.0877759934761 1.10244047594662 1.10143559110753 1.0372567693636 1.01617389897598 1.03764884757587 1.03884372447501 1.08404778944861 1.07892203223395 1.08221975783323 1.06394218059668 1.02399808809047 1.02714958306815 1.0351930969574 0.999428650291064 0.996639471172254 0.975543109377564 0.981978987397963 1.01692076729381 1.01432278220107 1.02948913078418 1.04945739903035 1.05034858357725 1.02440825799688 0.996621551404896 1.00172566001965 0.975681603066465 0.969532124602393 0.942161335035137 0.942540922850051 0.953561504076266 0.956691734065608 0.994970620010907 1.07219896410152 1.02168121793872 1.03891258850306 1.01462730508025 1.05584371703767 1.04796736528496 1.02545930214549 1.0053503129343 0.956281088309602 0.934652198349803 0.980013784473516 0.986980197711581 0.990666110360097 1.0930712767655 1.02278959747982 1.01022959698654 1.01473455734311 0.982159222422621 0.986433227692327 0.975367082979563 0.988681378671801 0.958906016164038 0.964058008413499 0.993327370614299 1.02690615051241 1.05585927320111 1.04789719734302 1.03947739484405 1.03444726874784 1.02007369885597 1.00149291133886 0.996810503427699 0.994457916494619 0.979123783031664 0.987625791517918 1.01060673774043 1.03387578001869 1.03021061714036 1.00724804539531 1.02673007726179 1.00989289004829 1.02341392030379 1.04171922543692 0.988951179482298 0.945867016966642 1.00531866704603 1.02311235887228 1.00249100584899 1.01181275065167 1.03157060955591 0.98414583112971 0.954495002511151 1.00029079894296 1.00601883232397 1.02283788023825 1.00729738393321 1.00186588370846 0.973844194005513 0.971876347186675 1.01411711541818 1.01800799238736 1.0174607988011 1.01760435037979 0.991016190636025 0.96769698020933 0.975285625209963 0.97860370411267 0.957293224301831 0.96630692664434 0.954317612728125 0.967919357193505 0.99095515121075 1.00442904726146 1.01035827475281 0.933047369712527 1.03022550053524 0.994765730898547 0.963687696472154 0.98237007578824 0.914547940180183 0.883529273081442 0.948624338988031 0.905374523822615 0.953163450895055 0.882193146489559 0.944772171316057 0.942700495844757 0.946318968203504 0.949105967007197 0.935810684022337 0.964580915077811 0.973931459939829 0.959344270077232 0.96760467970188 1.03256577684533 0.98149321884317 0.993090695819028 0.991722802298616 1.01086215752306 1.0066835068861 1.00059955812257 1.00575739844012 0.984351947489378 0.916556042593224 0.936047136204658 0.951045968665315 0.977293068395323 0.971945727924552 0.994706342295843 1.00134638884358
"7" 1.00770247874749 1.06490254308021 1.00181496808967 0.979741959851369 0.982672047910995 0.975779663395122 0.968973759549233 0.931258019692398 0.908022547457968 1.04599191627081 1.07936594696689 1.06415615362497 1.03526514024976 0.930173643300085 0.921191132226467 0.95296161197917 0.919715276775648 0.907449166857139 0.887379458559461 0.930534467878899 0.927754216763803 0.943429595312432 0.938654020218555 NA 0.887078126097524 1.05519373870472 0.888813988180138 0.829184885191816 0.869193486458461 0.984075995198794 0.887078126097524 0.806001093067105 0.964837428876058 0.938144480130763 0.928050209634286 NA 0.964945095602982 0.908136993169215 0.88809247879347 0.869458444082743 0.867712872848997 0.913926807790497 0.907252325526371 0.926737587684105 0.958557267246337 1.00258498384629 1.00048909720873 1.08284582088202 0.948697223926812 0.875232455687235 0.950427104413989 0.913991425195755 0.953965457553104 0.940319322561503 0.981360319646462 0.946246318521972 0.937698379824808 0.986160045870639 1.11002917680168 1.02680815804063 0.967691483285448 0.982939794562901 0.960533234896264 1.01459213704087 1.05296190151086 1.02866505948517 1.03028941154941 0.980684701539652 0.993335466342855 1.01801820751949 1.08165933044458 NA 1.04809665948287 1.01226541961745 0.990334372582389 1.07589565769829 1.07476737893928 1.08136722094573 1.05415129697269 1.0191151857149 1.02401059980448 1.04439726086814 1.06372966422886 1.0525194000671 1.01683118667893 0.975377146944097 0.929128839785467 0.965720396659945 0.937766780299377 0.935193198306167 0.908436753006011 0.907296678612936 0.927502511171723 0.962775453232642 0.980346102097488 0.969391827182654 0.955349447455644 0.872157226741505 0.917135557113959 0.87850699691201 0.906687921241593 0.908330120354091 0.879030038259945 0.871578105077002 0.940732045014712 0.924635869339556 0.959421493437533 0.954807918804716 0.996833335671984 1.00322892464233 0.972526959928602 1.02619207423837 1.04269375133852 1.04570165758889 0.981042035578978 0.986342287865012 1.05271092990776 1.04699703579878 1.01097145243608 1.02613069521459 1.02592132851996 1.03748997945843 1.08606745435226 1.1502303617104 1.12695434676796 1.08973295221211 1.06523011569461 1.02926368057727 1.04281164252572 1.07919585520254 1.15454298839517 1.15179313720132 1.0806751880387 1.07118729759506 1.02389862819228 0.989037974021105 0.991367148990069 0.950327729929453 1.00176614177278 0.983316459142665 0.993032836650861 1.01995797773475 1.04108220346703 1.06165705988598 1.05546691697128 1.02836677924612 0.981774377012508 0.943991768807614 0.945246255982756 0.934841109002748 0.906583035597304 0.894641964582163 0.912136167646462 0.913947712158366 1.0129276529929 0.966277196119192 0.971464063806068 0.967262060519857 1.04687182155018 1.04328732126668 1.02201528538566 0.977210981702004 0.921947433778921 0.886716937935432 0.941679385477135 0.944996677344607 0.969772618349394 0.997137446953296 0.978536158292589 1.00842239178346 0.976868059880943 0.95689820406237 0.952651924335698 0.924198403333996 0.931565812908099 0.889638881318571 0.894037085239133 0.922023971297261 0.980324035280018 0.999072329974596 1.00148754735434 0.997433861488711 1.02879930990106 1.01131395456746 0.99347653253949 0.963876148239092 0.94012617044723 0.932827371740278 0.949500953711839 0.973302528745966 0.986451846837121 0.969749435907928 0.978262513207186 0.998076445127263 0.964804905973755 1.00599006199011 1.00980825429027 0.951421808982464 0.921288652379584 1.02389056717826 0.963093846120467 0.950456173187555 0.947607901290456 0.952436548067388 0.909112002132849 0.894768521142321 0.968189076022954 0.965798779414094 1.01889058958662 0.972526108886982 0.949597716378648 0.903997562962415 0.92030443317697 0.945107257286929 0.95800501668099 0.927570784562376 0.92016470942979 0.934332507293524 0.910238091097749 0.917106285760421 0.926884358155071 0.9171659647585 0.922592446152283 0.897753020382089 0.928458272713395 0.948118276698594 0.953502564558638 0.950975065898903 0.858462702675023 0.979321172383169 0.973705274997154 0.949887559214047 0.971997044680037 0.895494427104141 0.879924270241898 0.887078126097524 0.828505931279592 0.894832687406675 0.793337945920366 0.867534621332518 0.883070242997685 0.888838645311994 0.885466543184993 0.869855880519167 0.951732785622891 0.949089842465553 0.959750832533326 0.819116495469084 1.01951241667072 0.967229093645014 0.989822297265382 0.948907880278284 0.937705413691179 0.918536748642132 0.932399907018161 0.950369163784251 0.944363168820219 0.865274646302254 0.896139676847982 0.901944732797495 0.924993562132337 0.887894598776698 0.948486283572169 0.896765639235349
"8" 1.02176111951517 1.05210430596307 1.02989006098518 0.984181047743094 0.956612730322536 0.974103643905681 0.963708484091411 0.938363140361153 0.950155218956151 1.01317160774914 1.04099241187651 1.01075971400308 0.971298312567157 0.964707145732957 0.936887285718475 0.945469768848449 0.924635847365944 0.908328156696615 0.909675633169897 0.97968707035614 0.955386303745199 0.950326418094702 0.908425428934428 NA NA NA 0.873543604454732 0.659116683420033 0.398465994976656 0.928755326637319 NA NA NA 0.955719190959047 NA NA NA NA NA 1.00764959631941 NA NA 0.853855703521406 0.899461251818651 0.928156129652391 1.0109784684579 1.03960676884887 1.02957673236204 0.971390496718684 0.892803507541681 0.956761272671964 0.955198150102589 0.964814145194551 0.97342273824099 1.01563888945178 0.975732370255619 1.00451094544599 0.963404543591811 1.06672297138711 1.10430384870791 0.946731236185138 0.919767371863409 0.989424021361208 1.0455422106807 1.03017313036716 1.01374668844674 1.02234418904501 0.962444220949455 0.975878614943466 0.979422718745142 1.05209895598999 NA 1.0542538062582 1.01950213317039 1.00768800638255 1.07465657097795 1.04551231605609 1.02958461287322 1.02706443769484 0.986585388585975 0.991243012208309 1.00737656772384 1.02367463196282 1.00610818378572 1.04320195075843 0.965081643848536 0.945732574543592 0.967341215678697 0.946378767370475 0.935011648097589 0.901473304624478 0.916700053964377 0.92982532125326 0.946533698717579 0.945451700956908 0.929710568207493 0.89665548815907 0.794934666670221 0.892803507541681 0.759482178395356 0.919767371863409 0.917270717759545 NA NA NA NA NA NA NA NA NA 1.00814892714019 1.03226366854339 1.03715550845599 0.969767031383454 0.992215734586438 1.00549386463801 1.00659980865526 0.986596885297931 1.01044372410374 1.00511094242689 1.0244447677938 1.04106158192757 1.09130295202011 1.07572804237846 1.03311731072798 0.999412635099946 0.984685045207052 1.00441740720698 1.01616469993729 1.07806516252825 1.04281958856418 1.04538115320082 1.03196862674236 1.00915356879156 0.993426892199732 1.00276364423815 1.01194847093534 1.02259219982455 1.01435061593418 0.988988558436116 0.995834396001681 0.995868283620602 1.00731499319209 1.00733505721971 0.977078321578225 0.966975949850643 0.949802591799702 0.95529788057902 0.947439378076416 0.938741943052774 0.917724654869339 0.948229228647456 0.980885464325994 1.03061881407496 0.968792579721098 0.997662979903958 0.969910698496799 1.02222364776207 1.0209668842637 1.00325900460901 0.957067384175134 0.910333206568809 0.894301500003999 0.944543691636991 0.953721867675956 0.980549550864747 0.969500721612375 0.968496185490585 0.978488676386285 0.952565522617325 0.921423047742814 0.961902393888616 0.978534768462049 0.960962164577161 0.976691085431503 0.958715175883684 0.96171116080832 1.01071691421845 1.01095766300703 0.980823478431002 0.999695969674248 1.02004474963507 0.987995935213798 1.00380569113309 1.00574852958009 0.952161458861042 0.946231905364365 0.983839400339408 0.992045508170265 0.98610271484122 0.999226102473334 0.997662979903958 0.955983542570045 0.945574891126506 0.987476631160194 1.01140926367582 0.964374258519109 0.938941675381083 1.01181068649252 0.970959636010459 0.941238597156638 0.935683541775541 0.957217183421366 NA 0.844867748747496 0.948229228647456 0.984458453754635 1.04121176077278 0.969294747648807 0.956952831810368 NA NA 0.915273394476455 0.973695100506866 NA 1.09653048241696 0.966704469016048 0.967703130657593 0.952124009049484 0.906784770523318 0.938941675381083 0.906118996095621 0.859847673370679 0.953222536855184 0.967536687050669 0.905536443471386 0.965705807374503 NA 1.02762282915032 0.953846700381149 0.954321064660884 1.00451094544599 NA NA NA NA NA NA NA NA 0.899794139032499 NA NA 1.0171368819141 0.894800830824772 0.973166397284872 NA 0.990339461199292 0.947480232416297 0.988675025130049 NA 0.994666994979322 NA NA 0.981484661310921 0.923662152265437 0.940739266335865 0.940739266335865 NA 0.991671010054686 0.908782093806409 1.00440394598439 0.817903884425768
"9" 0.968694035993852 0.984149182577982 0.97390929124726 0.942854701958315 0.925488151101429 0.906136021337177 0.912272535479249 0.865838411800858 0.876369329194651 0.961785952338213 0.971900828798597 0.926458467888073 0.904978080023733 0.901718855245736 0.894838269603299 0.91308992836008 0.816254738844935 0.828084517668775 0.840843779114488 0.900883156584711 0.849842860862623 0.856250657725536 0.895683253805002 NA NA NA 0.762175749935954 NA NA NA NA NA NA NA NA NA NA NA NA NA NA NA NA 0.856813980526671 NA NA 0.99370142120253 0.923567732461195 0.844139217501129 0.950607226915686 0.898323829435323 0.855546504224117 0.904615943937289 0.860193917333483 0.886810919687122 0.883974187009977 0.949973488764408 1.02919075767405 0.996236373807638 1.01778347095106 0.878361077670093 0.851744075316454 0.966881622640482 0.98417822087523 0.953913686835392 0.931341587116861 0.939270355542839 0.895562541776187 0.920452641448947 0.926877253917864 0.950660038428292 NA 0.970360725517757 0.959620391733849 0.909625493133098 0.956726078031465 0.952825310445156 0.93254122665956 0.929571567578557 0.901412658879962 0.9067273455641 0.922175636186447 0.917107346919062 0.915208424465778 0.928299643990731 0.932862558679926 0.871731201625964 0.90413309582203 0.902668456539078 0.864218710504751 0.821761704849137 0.826056555584688 0.855546504224117 0.848608739199609 0.880590087719413 0.848056871527206 0.856813980526671 NA NA NA NA NA NA NA NA NA NA NA NA NA NA NA 0.968351895151445 0.898640698510962 0.885543443384568 0.80864988102961 0.905495632847276 0.92617028380244 0.906571478804087 0.943663661084301 0.910917111841415 0.953621765148788 0.958109455070885 0.997149307199755 0.997112084707585 0.95454831706898 0.896762117562533 0.895374509577456 0.918920319351829 0.922469811358586 0.98819046849514 0.947266409747842 0.954797300035589 0.941781626560917 0.933162997507198 0.913283996160251 0.933928713243148 0.950910764929889 0.943195947299296 0.938506415423375 0.923935116896718 0.914327421352251 0.926798554408882 0.920586552243951 0.888535144206813 0.890182234206161 0.889406228306638 0.884583234064451 0.863561427902034 0.863928202353911 0.844456086576767 0.825380568223326 0.873291172459877 0.831464454475586 0.9548321479242 0.844139217501129 0.826394549265369 0.84160426489602 0.892413532328847 0.907855593791694 0.903337816573368 0.88038903975418 0.823469603951783 0.811184833634718 0.840308622453409 0.860971302799049 0.852859454462702 0.811184833634718 0.842756516080161 0.923673355486408 0.829351993971329 0.84160426489602 0.849842860862623 1.01144608943829 0.851744075316454 NA NA 0.803579975819393 0.846674170106237 NA NA 0.879628553972648 0.920897582383814 0.885129940477351 0.938876857997929 0.921692923763667 0.891035840695636 0.862447208538024 0.892514563048616 0.901504256083399 0.917758466074488 0.914755754357723 0.821831634576174 0.845565128341502 0.819513963622932 0.882778040542631 0.885107322506269 0.861883885736888 0.813719786239827 0.913850414141612 0.844984201702832 0.804847452121947 0.811184833634718 0.84160426489602 NA NA 0.780765402373416 0.858624660958892 0.894838269603299 0.836027369164782 NA NA NA 0.85934893313178 NA NA NA 0.851744075316454 NA NA NA NA 0.849209122711346 NA NA 0.937932463890143 0.885965935485419 NA NA 0.918920319351829 0.836534359685803 0.837379343887506 NA NA NA NA NA NA NA NA NA NA NA NA NA 0.813719786239827 NA NA 0.876248617165836 NA NA NA NA NA NA 1.08242476238133 0.965816942546337 NA NA NA NA 1.02158589985872 NA NA
"10" NA 0.99126597429706 NA NA NA 0.89170650962967 0.960965267659159 NA NA NA NA NA NA NA NA NA NA NA NA NA NA NA NA NA NA NA NA NA NA NA NA NA NA NA NA NA NA NA NA NA NA NA NA NA NA NA NA NA NA NA NA NA NA NA NA NA NA NA NA NA NA NA NA 1.03455269806549 NA NA NA NA NA 0.887377837252827 0.947979250528629 NA NA 0.99126597429706 NA NA NA NA NA NA NA NA 1.09515411134129 NA NA NA NA NA NA NA NA NA NA NA NA NA NA NA NA NA NA NA NA NA NA NA NA NA NA NA NA NA NA NA NA NA NA NA NA NA NA NA NA NA 1.12978349035604 0.943650578151786 0.99126597429706 NA NA 0.984772965731795 NA NA NA NA NA NA NA NA NA NA NA NA NA 1.01290933618128 NA NA 0.694751916483311 NA NA NA NA NA NA NA NA NA NA NA NA NA NA NA NA NA NA NA NA NA NA NA NA NA NA NA NA NA NA NA NA NA NA NA NA NA NA NA NA NA NA NA NA NA NA NA NA NA NA NA NA NA NA NA NA NA NA NA NA NA NA NA NA NA NA NA NA NA NA NA NA NA NA NA NA NA NA NA NA NA NA NA NA NA NA NA NA NA NA NA NA NA NA NA NA NA NA NA NA NA NA NA NA NA NA NA NA NA NA NA NA NA NA NA NA NA
"11" NA NA NA NA NA NA NA NA NA NA NA NA NA NA NA NA NA NA NA NA NA NA NA NA NA NA NA NA NA NA NA NA NA NA NA NA NA NA NA NA NA NA NA NA NA NA NA NA NA NA NA NA NA NA NA NA NA NA NA NA NA NA NA NA NA NA NA NA 0.786165348074251 NA NA NA NA NA NA NA NA NA NA NA NA NA NA NA NA NA NA NA NA NA NA NA NA NA NA NA NA NA NA NA NA NA NA NA NA NA NA NA NA NA NA NA NA NA NA NA NA NA NA NA NA NA NA NA NA NA NA NA NA NA NA NA NA NA NA NA NA NA NA NA NA NA NA NA NA NA NA NA NA NA NA NA NA NA NA NA NA NA NA NA NA NA NA NA NA NA NA NA NA NA NA NA NA NA NA NA NA NA NA NA NA NA NA NA NA NA NA NA NA NA NA NA NA NA NA NA NA NA NA NA NA NA NA NA NA NA NA NA NA NA NA NA NA NA NA NA NA NA NA NA NA NA NA NA NA NA NA NA NA NA NA NA NA NA NA NA NA NA NA NA NA NA NA NA NA NA NA NA NA NA NA NA NA NA NA NA NA NA NA NA NA NA NA NA
"12" 1.24234188513241 1.22192744297017 1.1523108433882 1.1495373304858 1.07612476816415 1.04997753374236 1.00791713064665 0.900968819926279 0.96295038434227 1.16397102326576 1.17364073785383 1.12486834634404 0.833667989797391 0.883323665747713 0.916226753998589 0.942269929788287 0.959965385775045 0.943864735437737 0.916356237453041 0.914787376449885 0.931402128430766 0.96165248498202 0.960414367908458 0.527733339550735 0.665921817084328 0.844596473310979 0.673370571695345 0.70120397791124 0.635264351403776 0.643831463055672 0.669464211092013 0.631351410274434 0.811817268480009 0.830529073557705 0.950110570335706 NA 0.785946026689749 0.848947003351351 0.79323999306233 0.846406332611676 0.84189906122464 0.857515024817683 0.766840610348159 0.770204341463597 0.832306031664636 0.951117642937728 0.965595473099913 0.954278092244798 0.91944565264154 0.813121919517951 0.944262306148746 0.880684221146064 0.891723929372898 0.906684605919537 0.95274293084794 0.9246557696435 0.923301514238667 1.00963423185737 1.22890735658951 0.941684534316965 0.858441628402247 0.880160182948986 0.985365444065502 1.02854048998901 1.11093041892903 1.05493030193748 1.05103171154533 0.967773280452783 0.961606089452151 1.05211493304207 1.08118271533912 NA 0.888877383804504 0.981361679780447 0.998327321872474 1.10468672373117 1.10262467038151 1.16811560778681 1.15831795850209 1.08304784417465 1.03943384675427 1.07164045457674 1.09706246809257 1.12178678148221 0.765949593588227 0.80374921344244 0.809249312875468 0.945414078488889 0.909752202770813 0.88583117154483 0.8734344045864 0.836754192659843 0.824387363806117 0.966032007480207 1.02030541973385 0.965912482542788 0.903689259265288 0.879199470547074 0.657902679745857 0.558742087911668 0.659688773606749 0.659324161809409 0.558603809840866 0.574046835333261 0.652276359938345 0.635245215851668 0.773662955547512 0.812005498971995 0.826569561041636 0.754537915599967 0.802279258413602 0.928566589806111 1.00383757667243 0.98483248496397 0.929067625537962 0.884113188421622 0.972857148372529 1.00659576130667 0.962790137162317 0.911456702009436 0.973447216572408 0.979574693860676 1.08573614885772 1.21479353552706 1.23671591917246 1.19432354833317 1.14313515744503 1.11940776228904 1.13741579969939 1.17013337319163 1.24460084614947 1.12652943394849 1.06723896067396 1.13774432958997 1.09870201580279 1.04010046327587 1.04719401042835 0.996620969826292 1.06835089635751 1.024679286415 1.02416232068 1.08957404259186 1.12405673306129 1.11781288510362 1.04018963055109 0.956786176686861 0.818580428331089 0.878893540260682 0.889702015593011 0.766156821166615 0.709328913171196 0.790583431641799 0.738944341869979 0.802248626159352 0.948758964171189 0.942490119579611 0.953952632189468 0.943356432942586 1.04760124724512 1.06202013385861 1.06246537258987 0.952031408035713 0.852292299525921 0.806734488435345 0.924123516675665 0.921744448961175 0.978688200557053 0.988522443246942 0.879799830948509 0.808176510065896 0.874283991180201 0.84367349968292 0.877000226562513 0.81703075271698 0.803200347054447 0.731996666944924 0.811497130798178 0.862361457765173 0.945510132346548 0.996307493078939 1.03942417233548 1.00340828913996 1.00431208907205 0.975834679941826 0.98130953162811 0.934542132936391 0.899807339714587 0.852739025211115 0.871281601626192 0.935147900522731 0.993514217959414 0.968033912187616 0.929452013803955 0.961870134307769 0.886548359412372 0.94402786256309 0.987843530812659 0.924696400033254 0.848440066671104 0.890483159555816 0.875728662760519 0.889653394968221 0.918506323742191 0.862329856842386 0.829923570585376 0.682043287738732 0.847118415725218 0.885118487478195 0.91058103951943 0.956282155962215 0.91472121688659 0.769268374109036 0.724475252552875 0.817483035698409 0.863117134467141 0.860450693596634 0.883368631029016 0.831963059358125 0.829855998677687 0.851718638660167 0.8589680186249 0.856405065629462 0.860688153036544 0.764444720361356 0.814343336357153 0.81553717702618 0.828110648077663 0.836552969097298 0.713335166855084 0.743380609012622 0.791264413180923 0.826768667364011 0.825532662138343 0.720304932020589 0.669990857226881 0.734343242168459 0.641497964712179 0.646841427486439 0.605147567359357 0.7494636290653 0.718575166808372 0.71429516167738 0.723801227497792 0.709917843871699 0.746168405214699 0.842284227483297 0.747418662765267 0.624027657406711 0.68403075318519 0.691312964619827 0.682394200398811 0.674451363703649 0.729941394444457 0.72098282647437 0.808900240377173 0.865679174940518 0.848572188564049 0.716149634015535 0.704836778253492 0.70647613221138 0.760119606887663 0.772991311536649 0.853802454313139 0.878534708413064
